<?xml version="1.0" encoding="UTF-8"?>
<svg width="28px" height="29px" viewBox="0 0 28 29" version="1.1" xmlns="http://www.w3.org/2000/svg" xmlns:xlink="http://www.w3.org/1999/xlink">
    <!-- Generator: Sketch 53.2 (72643) - https://sketchapp.com -->
    <title>Group 3</title>
    <desc>Created with Sketch.</desc>
    <defs>
        <linearGradient x1="17.7862861%" y1="50%" x2="88.9662616%" y2="50%" id="linearGradient-1">
            <stop stop-color="#B7FA82" offset="0%"></stop>
            <stop stop-color="#79D3CC" offset="100%"></stop>
        </linearGradient>
    </defs>
    <g id="Contact-Form" stroke="none" stroke-width="1" fill="none" fill-rule="evenodd">
        <g id="05.02--Hear-from-you" transform="translate(-1259.000000, -95.000000)" fill="url(#linearGradient-1)">
            <g id="Group-2" transform="translate(1239.000000, 75.000000)">
                <g id="Group-3" transform="translate(20.000000, 20.000000)">
                    <polygon id="Rectangle-2" transform="translate(14.000000, 14.500000) rotate(45.000000) translate(-14.000000, -14.500000) " points="-3 12 31 12 31 17 -3 17"></polygon>
                    <polygon id="Rectangle-2-Copy" transform="translate(14.000000, 14.500000) rotate(-45.000000) translate(-14.000000, -14.500000) " points="-3 12 31 12 31 17 -3 17"></polygon>
                </g>
            </g>
        </g>
    </g>
</svg>