<?xml version="1.0" encoding="UTF-8"?>
<svg width="103px" height="74px" viewBox="0 0 103 74" version="1.1" xmlns="http://www.w3.org/2000/svg" xmlns:xlink="http://www.w3.org/1999/xlink">
    <!-- Generator: Sketch 61.1 (89650) - https://sketch.com -->
    <title>img_brand_strategy</title>
    <desc>Created with Sketch.</desc>
    <defs>
        <polygon id="path-1" points="0 0 103 0 103 74 0 74"></polygon>
        <linearGradient x1="50%" y1="0%" x2="50%" y2="100%" id="linearGradient-3">
            <stop stop-color="#988CFF" offset="0%"></stop>
            <stop stop-color="#4999FF" offset="100%"></stop>
        </linearGradient>
        <linearGradient x1="50%" y1="0%" x2="83.6%" y2="100%" id="linearGradient-4">
            <stop stop-color="#73CF7D" offset="0%"></stop>
            <stop stop-color="#3AB08C" offset="100%"></stop>
        </linearGradient>
        <linearGradient x1="50%" y1="0%" x2="50%" y2="100%" id="linearGradient-5">
            <stop stop-color="#FFADA3" offset="0%"></stop>
            <stop stop-color="#FF53A5" offset="100%"></stop>
        </linearGradient>
    </defs>
    <g id="Dashboard" stroke="none" stroke-width="1" fill="none" fill-rule="evenodd">
        <g id="img_brand_strategy">
            <g id="Mask-Group-3">
                <mask id="mask-2" fill="white">
                    <use xlink:href="#path-1"></use>
                </mask>
                <g id="Mask"></g>
                <g mask="url(#mask-2)">
                    <g transform="translate(0.000000, -17.000000)">
                        <circle id="Oval_Copy_3" fill="url(#linearGradient-3)" fill-rule="nonzero" cx="8" cy="25" r="7"></circle>
                        <ellipse id="Oval_Copy_5" fill="url(#linearGradient-4)" fill-rule="nonzero" cx="91.5" cy="79" rx="10.5" ry="11"></ellipse>
                        <g id="Group_3_Copy_6" opacity="0.343" stroke-width="1" fill="none" fill-rule="evenodd" transform="translate(68.376000, 0.671000)">
                            <path d="M47.384,98.3290002 C45.0931098,98.3290002 42.8042913,98.1912763 40.53,97.916 C37.4639575,97.5854035 34.4469195,96.8984317 31.54,95.869 C28.6301603,94.8477199 25.9653905,93.2306024 23.716,91.121 C21.757822,89.1724897 20.1057853,86.9388687 18.816,84.496 C17.4871628,82.0183999 16.3462873,79.4444939 15.403,76.796 C14.9496609,76.1440439 14.5184162,75.4769988 14.11,74.796 C10.6383222,71.4316205 7.62808777,67.6217505 5.158,63.466 C1.98045441,58.0232553 0.413047572,51.7903857 0.638,45.492 C0.835955027,39.1887174 2.6302927,33.038767 5.853,27.618 C6.72522945,26.155092 7.69404561,24.7519789 8.753,23.418 C9.23967699,21.9822468 9.80520321,20.5744404 10.447,19.201 C12.8772039,13.8552691 16.6605551,9.2363819 21.423,5.801 C26.407,2.312 32.811,0.475 40.457,0.339 C40.817,0.328130478 41.184,0.328130478 41.545,0.328130478 C50.4725095,0.280093983 59.290569,2.29483887 67.311,6.216 C72.933,7.442 77.037,9.184 80.226,11.696 C81.8228776,12.961874 83.2461113,14.4325153 84.459,16.07 C86.3022568,17.2011413 88.0563652,18.4715076 89.706,19.87 C91.33968,21.2579595 92.8204145,22.8164687 94.123,24.519 C97.2806356,28.8076863 99.1384525,33.9139056 99.475,39.229 C99.592,39.741 99.703,40.289 99.826,40.955 C100.362703,42.3518675 100.785418,43.7898997 101.09,45.255 C101.867104,49.1385654 101.791358,53.1445871 100.868,56.996 C99.9271387,60.8084708 98.4236414,64.4595325 96.407,67.829 C92.378798,76.9301298 85.7091856,84.6111236 77.263,89.876 C71.8618846,93.2727395 65.9039335,95.6901104 59.663,97.017 C55.627751,97.8863186 51.5118252,98.3261015 47.384,98.3290002 L47.384,98.3290002 Z M18.695,80.806 C19.637948,82.9515782 20.784179,85.0019353 22.118,86.929 C23.4181656,88.826321 25.037086,90.4841496 26.903,91.829 C29.5328196,93.6079677 32.4719376,94.8797993 35.569,95.579 C38.6633639,96.2943862 41.8205291,96.7040205 44.995,96.802 C45.795,96.836 46.603,96.853002 47.403,96.853002 C52.5170076,96.8543558 57.6072883,96.1579327 62.533,94.783 C66.6175564,93.6398039 70.5487902,92.0066026 74.241,89.919 C72.701398,90.4907283 71.1017965,90.8855964 69.473,91.096 C67.9230292,91.2910259 66.3621874,91.3868876 64.8,91.383 C62.985632,91.376384 61.1729623,91.2712291 59.37,91.068 C55.484541,92.0925065 51.4842413,92.6170754 47.466,92.629 C41.9699325,92.6560983 36.5244637,91.5784307 31.453,89.46 C29.0655986,88.4569656 26.7812165,87.2245178 24.632,85.78 C22.4829702,84.3362195 20.4928736,82.6689229 18.695,80.806 L18.695,80.806 Z M19.687,79.533 C21.9175034,81.9164449 24.4638122,83.9833022 27.255,85.676 C30.133664,87.4159139 33.2316845,88.7638152 36.467,89.684 C40.1050235,90.7209986 43.8700701,91.2447258 47.653,91.2400317 C50.280817,91.2359808 52.9029817,90.9963548 55.488,90.524 C53.2124281,90.1344525 50.9507838,89.6675151 48.707,89.124 C47.6520645,88.8714356 46.6028109,88.5957023 45.56,88.297 C41.965136,88.2663103 38.3858112,87.8210339 34.893,86.97 C32.1677659,86.2613272 29.5235621,85.2713426 27.003,84.016 C24.4366609,82.7392301 21.9884315,81.2376985 19.687,79.529 L19.687,79.533 Z M78.305,82.888 C78.6599453,82.9010883 78.9488263,83.1779326 78.977,83.532 C79.0333562,83.865715 78.8176613,84.1848554 78.487,84.257 C76.57,84.745 74.566,85.206 72.531,85.626 C71.1889635,86.3964496 69.8172439,87.1140004 68.419,87.777 C66.826394,88.5273574 65.1973724,89.1978561 63.538,89.786 C64.071,89.807 64.61,89.819 65.138,89.819 C68.7860407,89.926487 72.409302,89.1864312 75.723,87.657 C78.4396705,86.2580042 80.9111622,84.4271821 83.041,82.236 C85.179063,80.0504099 87.2014858,77.7546146 89.1,75.358 C91.6280585,72.307126 93.8378612,69.0059925 95.695,65.506 C96.7356921,62.9020082 97.5431941,60.2107813 98.108,57.464 C98.670723,54.7227133 98.9720734,51.9342171 99.008,49.136 C98.3194207,53.1667676 97.120098,57.0933816 95.439,60.821 C93.3555871,65.39415 90.623459,69.642892 87.327,73.436 C84.0312496,77.2414538 80.247175,80.5948016 76.073,83.409 C76.921,83.209 77.53,83.059 78.111,82.909 C78.1745126,82.8937905 78.239704,82.8867338 78.305,82.888 L78.305,82.888 Z M67.816,86.509 C63.925,87.163 60.016,87.637 56.19,87.917 C54.48,88.043 52.982,88.135 51.608,88.201 C52.908,88.464 54.057,88.676 55.126,88.846 C56.97,89.141 58.481,89.346 59.882,89.505 C62.605745,88.7298096 65.2597059,87.7276333 67.816,86.509 Z M52.023,8.40295946 C49.2495924,8.39975006 46.4794015,8.59189237 43.733,8.978 C40.9626297,9.36328704 38.2298648,9.98249964 35.564,10.829 C30.2544038,12.4293781 25.4109123,15.2908019 21.447,19.169 C17.303,23.354 14.459,29.145 12.994,36.382 C11.7991545,42.8057002 11.5103464,49.3651444 12.136,55.869 C12.251,57.254 12.415,58.68 12.636,60.231 C14.6482963,65.0476006 17.5884486,69.4213023 21.289,73.103 C27.611,79.442 36.01,84.093 46.257,86.929 C46.557,86.929 46.863,86.935 47.17,86.935 C50.455,86.935 53.796,86.712 56.63,86.495 C61.769679,86.0912288 66.8792311,85.3678293 71.929,84.329 C77.5474334,81.0229561 82.5463106,76.7624725 86.701,71.739 C83.7168556,74.3306813 80.3756941,76.4799901 76.78,78.121 C76.1623787,78.6831053 75.5235828,79.2214951 74.865,79.735 C72.2719692,81.7452706 69.3309316,83.2608745 66.189,84.206 C63.0941158,85.1228448 59.8807562,85.5774193 56.653,85.555 C50.5358474,85.4511428 44.4900841,84.2219901 38.818,81.929 C36.0633956,80.8593547 33.4179122,79.5275715 30.918,77.952 C28.447753,76.3987345 26.1623708,74.5692881 24.106,72.499 C22.0698465,70.4472914 20.3252035,68.125587 18.921,65.599 C17.4885749,63.0014638 16.4700031,60.1964272 15.902,57.285 C14.753,51.385 14.99,44.719 16.629,36.908 C17.2664256,33.7606027 18.2713093,30.698963 19.623,27.786 C20.9827314,24.8762425 22.7941081,22.1998466 24.99,19.856 C27.9962608,16.6747376 31.6794624,14.2102701 35.767,12.645 C39.7786153,11.1320008 44.0357109,10.3749051 48.323,10.412 C52.1881292,10.4286093 56.0345798,10.9493358 59.765,11.961 C60.183,12.072 60.603,12.199 61.01,12.321 L61.22,12.384 C64.6764438,13.0965465 68.0188926,14.2795594 71.154,15.9 C74.2932625,17.5171888 77.1780352,19.5865971 79.716,22.042 C80.458002,22.7645512 81.1683353,23.5189259 81.845,24.303 C84.1287307,26.4357606 86.2161298,28.7694841 88.082,31.276 C88.319,31.595 88.569,31.942 88.869,32.369 C88.5247839,29.8855757 87.961931,27.4373999 87.187,25.053 L86.067,23.815 L85.758,23.476 C82.7409782,20.0219831 79.5103037,16.7605816 76.085,13.711 C75.485,13.444 74.939,13.211 74.416,12.994 C71.3484308,11.7312937 68.204574,10.6625227 65.003,9.794 C61.7684828,9.09655165 58.4833234,8.6591546 55.179,8.486 C54.1279418,8.42985825 53.0755562,8.40295946 52.023,8.40295946 L52.023,8.40295946 Z M13.59,65.49 C14.2907833,68.672495 15.2017809,71.8050304 16.317,74.867 C21.8328416,80.1231041 28.6002077,83.8826754 35.977,85.789 C37.3550143,86.1103497 38.7493782,86.3570422 40.154,86.528 C35.4346966,84.7907948 30.9551779,82.4611494 26.823,79.595 C22.68336,76.7177902 19.0305564,73.1969872 16.003,69.166 C15.1292092,67.9876952 14.3235591,66.7603558 13.59,65.49 L13.59,65.49 Z M16.5408114,50.28 C16.5273561,54.3016576 17.2541328,58.2914717 18.685,62.05 C20.8262222,67.24737 24.3947548,71.7325644 28.978,74.987 C33.535802,78.2750183 38.6518242,80.7097027 44.078,82.173 C48.2970548,83.4078951 52.6634477,84.0678491 57.059,84.1352665 C59.1858507,84.1437629 61.3080865,83.9363641 63.393,83.516 C66.3524409,82.8890157 69.1721978,81.725866 71.713,80.084 C67.6975175,81.3717041 63.5185932,82.0788549 59.303,82.184 C58.985,82.191 58.663,82.195 58.344,82.195 C55.2982799,82.1906083 52.2616197,81.8631089 49.285,81.218 C46.3108232,80.5748329 43.4081465,79.6368646 40.62,78.418 C37.8294903,77.1973749 35.1637198,75.7094329 32.66,73.975 C30.1576839,72.2427348 27.8315219,70.2689302 25.715,68.082 C20.521,62.707 17.476,57.057 16.663,51.29 C16.623,50.992 16.581,50.674 16.5408114,50.28 L16.5408114,50.28 Z M53.364,13.0169858 C50.8996363,13.0147871 48.4418438,13.2711913 46.031,13.782 C40.6390646,14.9643725 35.5952979,17.3825324 31.297,20.846 C26.987931,24.2914836 23.5007627,28.65386 21.089,33.616 C19.6627405,36.5500462 18.6755213,39.6778125 18.159,42.899 C17.6268609,46.116027 17.6858254,49.4031277 18.333,52.599 C19.511,58.199 22.942,63.656 28.533,68.827 C32.5787577,72.5636951 37.2709005,75.5327538 42.38,77.589 C44.9248996,78.6141123 47.559562,79.4004938 50.25,79.938 C52.9439171,80.4754436 55.6839972,80.7477434 58.431,80.751 C59.331,80.751 60.247,80.72 61.143,80.66 C66.1789267,80.2988021 71.1127373,79.0587498 75.721,76.996 C76.4846446,76.2961719 77.2141557,75.5599865 77.907,74.79 C81.5548013,70.6454624 84.3518794,65.8239684 86.139,60.6 C87.9574366,55.3661994 89.0257044,49.9013006 89.312,44.368 C88.8268903,40.9012821 87.8619801,37.5188798 86.445,34.318 C85.0332119,31.1137012 83.1648217,28.1307442 80.898,25.462 C74.9689162,20.0520877 67.9153917,16.0222829 60.244,13.662 C57.9757908,13.2329764 55.6724268,13.0169858 53.364,13.0169858 L53.364,13.0169858 Z M89.348,55.061 C88.5284966,58.6628136 87.3402281,62.170652 85.802,65.529 C84.279245,68.8658011 82.3182936,71.9846251 79.971,74.803 C82.451229,73.3462266 84.757719,71.6120816 86.846,69.634 C88.9128473,67.6776198 90.7078608,65.4527719 92.183,63.019 C94.3530541,59.358074 95.2815474,55.0937395 94.83,50.862 C94.3629625,46.5827529 93.0581602,42.4372872 90.99,38.662 C91.041286,40.9822248 90.9745331,43.3035565 90.79,45.617 C91.0723159,48.7517402 90.9624677,51.9094559 90.463,55.017 C90.442334,55.2705803 90.2262853,55.463308 89.972,55.455 C89.706587,55.4510257 89.4656949,55.2989239 89.348,55.061 L89.348,55.061 Z M7.588,27.472 C7.308,27.916 7.083,28.287 6.878,28.641 C3.75961268,33.9987736 2.09434555,40.077981 2.047,46.277 C1.99295468,52.4709907 3.72205834,58.5497568 7.028,63.788 C8.45228612,66.0225657 10.0346611,68.1523389 11.763,70.161 C10.5395096,67.260095 9.57475749,64.2567476 8.88,61.186 C7.54500505,55.67394 6.68683902,50.0572183 6.315,44.398 C5.91878673,38.7241268 6.34758332,33.0227827 7.588,27.472 L7.588,27.472 Z M27.374,11.31 C20.6020428,14.054503 14.62523,18.4512507 9.989,24.099 L9.98,24.125 C9.896,24.377 9.81,24.637 9.73,24.897 C7.866,30.934 7.271,37.768 7.912,45.789 C8.37500845,52.493968 9.59886861,59.1245525 11.56,65.553 C11.9785576,66.8621945 12.4669235,68.1480356 13.023,69.405 C12.2279396,66.4906716 11.6098118,63.5309383 11.172,60.542 C7.44665298,50.9456855 7.18495688,40.3505297 10.432,30.582 C11.3842718,27.5796567 12.8014885,24.7452234 14.632,22.182 C16.4835039,19.6285453 18.7083669,17.3679496 21.232,15.476 C23.2044348,13.9799929 25.2546332,12.589383 27.374,11.31 L27.374,11.31 Z M24.133,14.929 C21.8190634,16.4874902 19.6826738,18.2945855 17.762,20.318 C13.818,24.542 11.33,30.261 10.162,37.802 C9.33467198,42.9285767 9.44479032,48.1627553 10.487,53.25 C10.487,53.159 10.477,53.066 10.471,52.976 C10.4634773,52.86809 10.4574767,52.7600792 10.453,52.652 C10.0756454,45.8814562 10.7626621,39.0936228 12.489,32.536 C14.541,25.321 18.095,19.674 23.052,15.75 C23.364,15.499 23.709,15.239 24.133,14.929 L24.133,14.929 Z M89.698,27.911 C90.260441,30.3620524 90.6365157,32.852168 90.823,35.36 C93.2752051,39.3020984 95.0320808,43.6361085 96.017,48.173 C96.3506824,49.7950746 96.5109167,51.448036 96.495,53.104 C97.6290425,48.9712745 98.095588,44.6839173 97.877,40.404 C97.606,39.744 97.347,39.167 97.085,38.641 C95.0727044,34.7745163 92.5916802,31.1707001 89.698,27.911 L89.698,27.911 Z M47.661,11.701 C37.412,11.701 29,15.901 23.335,23.857 C21.7575072,26.1005824 20.4969655,28.551 19.589,31.139 C18.6764505,33.725645 17.9902069,36.3866372 17.538,39.092 C18.1485527,36.8513288 18.9733558,34.6746256 20.001,32.592 C22.5695481,27.4300847 26.2685433,22.913496 30.823,19.378 C35.3629835,15.8147266 40.6774079,13.3692144 46.337,12.239 C47.427,12.029 48.549,11.866 49.672,11.754 C49.0022453,11.7187563 48.3316814,11.701 47.661,11.701 Z M87.312,32.742 C88.1391941,34.5001109 88.8302237,36.3191201 89.379,38.183 C89.3469288,37.3152762 89.295249,36.4483882 89.224,35.583 C88.6202932,34.6137979 87.9825628,33.6662079 87.312,32.742 L87.312,32.742 Z M87.173,20.601 C87.7505879,21.8096366 88.254183,23.0522608 88.681,24.322 C89.9286604,25.7630136 91.152822,27.2242065 92.353,28.705 C93.8107035,30.4850359 95.1662161,32.3463617 96.413,34.28 C94.962496,30.3599597 92.8295969,26.7275987 90.113,23.551 C89.1994199,22.5036353 88.2172565,21.5181313 87.173,20.601 L87.173,20.601 Z M81.033,16.219 C82.514,17.645 83.967,19.119 85.352,20.608 C84.8953019,19.7064938 84.3881646,18.8314399 83.833,17.987 C82.9230122,17.3614807 81.9889687,16.7716989 81.033,16.219 L81.033,16.219 Z M42.045,1.65594086 C39.6478243,1.65233061 37.2534319,1.8194201 34.88,2.156 C32.2545888,2.52953648 29.6910953,3.25331477 27.258,4.308 C24.9248318,5.32744666 22.7357559,6.6490958 20.747,8.239 C18.7673849,9.82465025 16.989178,11.6465147 15.452,13.664 C13.8840127,15.7242706 12.5513946,17.9534625 11.479,20.31 C14.6623906,17.0701519 18.3186083,14.3316974 22.323,12.188 C26.3213023,10.0304112 30.5934903,8.42447225 35.023,7.414 C36.6273041,6.74341057 38.2686513,6.16513284 39.939,5.682 C43.5268645,4.68539231 47.2375225,4.20060301 50.961,4.242 C54.388697,4.26795011 57.8092447,4.55915302 61.192,5.113 L61.218,5.113 L61.27,5.121 C55.1147171,2.84654844 48.6070368,1.67364274 42.045,1.65594086 Z M72.24,9.029 C73.5283563,9.86208271 74.775804,10.7567877 75.978,11.71 C77.3955462,12.3053356 78.7898912,12.9544732 80.158,13.656 C78.1915391,11.8629272 75.9123702,10.4464122 73.434,9.477 C73.03714,9.32464581 72.6391285,9.17530817 72.24,9.029 L72.24,9.029 Z M42.87,7.578 C40.3696368,7.7834564 37.8870448,8.16642188 35.441,8.724 C34.69,9.041 34.035,9.338 33.441,9.63 C31.8418031,10.4057865 30.2657874,11.2284761 28.715,12.097 C33.1554972,9.8292431 37.9369036,8.30277363 42.87,7.578 L42.87,7.578 Z M47.67,6.022 C53.0929082,6.04467523 58.4936257,6.71611397 63.757,8.022 C66.1430135,8.48016871 68.4998045,9.07921704 70.815,9.816 C69.3774201,8.91170823 67.8944785,8.08162141 66.372,7.329 C62.3908643,6.44326386 58.3441129,5.88374195 54.272,5.656 C53.301,5.596 52.326,5.5659641 51.372,5.5659641 C49.0867041,5.56304708 46.8048094,5.74228148 44.548,6.102 C45.5864728,6.04853481 46.6261518,6.02185927 47.666,6.022 L47.67,6.022 Z" id="Fill_1" fill="#FFFFFF" fill-rule="nonzero"></path>
                            <polygon id="Clip_2-2" points="1.193 0 102.393 0 102.393 98.085 1.193 98.085"></polygon>
                        </g>
                        <path d="M37.5198597,95.9971403 C38.6946718,97.0801711 40.5040476,97.0801711 41.6788597,95.9971403 C42.4438597,95.2971403 60.4108597,78.6301403 60.4108597,57.4971403 C60.4108597,36.3641403 42.4438597,19.6961403 41.6788597,18.9961403 C40.5036731,17.9140687 38.6950463,17.9140687 37.5198597,18.9961403 C36.7548597,19.6961403 18.7868597,36.3641403 18.7868597,57.4961403 C18.7868597,78.6281403 36.7548597,95.2981403 37.5198597,95.9971403 Z" id="Path_Copy" fill="url(#linearGradient-5)" fill-rule="nonzero" transform="translate(39.598860, 57.497000) rotate(-90.000000) translate(-39.598860, -57.497000) "></path>
                        <ellipse id="Oval_Copy_4" fill="#FFFFFF" fill-rule="nonzero" cx="40" cy="57.5" rx="14" ry="14.5"></ellipse>
                    </g>
                </g>
            </g>
        </g>
    </g>
</svg>