<svg xmlns="http://www.w3.org/2000/svg" width="679" height="531" viewBox="0 0 679 531">
    <defs>
        <linearGradient id="a" x1="50%" x2="46.71%" y1="0%" y2="159.295%">
            <stop offset="0%" stop-color="#FFEFE6"/>
            <stop offset="100%" stop-color="#FFCCB1"/>
        </linearGradient>
    </defs>
    <path fill="url(#a)" fill-rule="evenodd" d="M843.513 4616.691c183.278-165.282 156.393 78.266 324.537 113.359 168.143 35.093 118.35 464.962-165.412 514.348-283.761 49.386-342.403-462.424-159.125-627.707z" opacity=".739" transform="rotate(-100 -1280.768 2865.257)"/>
</svg>
