<?xml version="1.0" encoding="UTF-8"?>
<svg width="153px" height="52px" viewBox="0 0 153 52" version="1.1" xmlns="http://www.w3.org/2000/svg" xmlns:xlink="http://www.w3.org/1999/xlink">
    <!-- Generator: Sketch 53.2 (72643) - https://sketchapp.com -->
    <title>Path Copy 2</title>
    <desc>Created with Sketch.</desc>
    <defs>
        <linearGradient x1="50%" y1="0%" x2="50%" y2="83.844807%" id="linearGradient-1">
            <stop stop-color="#FFC1C7" offset="0%"></stop>
            <stop stop-color="#F38DFF" offset="100%"></stop>
        </linearGradient>
    </defs>
    <g id="Page-1" stroke="none" stroke-width="1" fill="none" fill-rule="evenodd">
        <g id="05" transform="translate(-456.000000, -106.000000)" fill="url(#linearGradient-1)" fill-rule="nonzero">
            <g id="Group-2" transform="translate(456.000000, 105.096315)">
                <path d="M102.096315,-24.521694 C102.096315,-38.5927211 85.7979662,-50 65.6952054,-50 L50.9036854,-50 L50.9036854,67.1700752 C50.9036854,86.1586337 72.0124628,101.687087 98.7004593,102.911858 C100.964363,102.970619 102.096315,103 102.096315,103 L102.096315,-24.521694 Z" id="Path-Copy-2" transform="translate(76.500000, 26.500000) rotate(-90.000000) translate(-76.500000, -26.500000) "></path>
            </g>
        </g>
    </g>
</svg>