<svg xmlns="http://www.w3.org/2000/svg" width="30.205" height="32.721" viewBox="0 0 30.205 32.721">
    <defs>
        <style>
            .cls-1{fill:url(#linear-gradient)}
        </style>
        <linearGradient id="linear-gradient" x1="-.391" x2="1.1" y1="1.261" y2=".101" gradientUnits="objectBoundingBox">
            <stop offset="0" stop-color="#fdd69f"/>
            <stop offset="1" stop-color="#ff692a"/>
        </linearGradient>
    </defs>
    <g id="Group_3" data-name="Group 3">
        <path id="Combined_Shape_Copy" d="M0 26.332l11.035-11.22L0 3.872 3.808 0 18.7 15.1 14.853 19l-.013-.013L3.808 30.2z" class="cls-1" data-name="Combined Shape Copy" transform="rotate(-90 9.349 9.348)"/>
        <path id="Combined_Shape_Copy_2" d="M0 26.332l11.035-11.22L0 3.872 3.808 0 18.7 15.1 14.853 19l-.013-.013L3.808 30.2z" class="cls-1" data-name="Combined Shape Copy 2" transform="rotate(-90 16.36 16.36)"/>
    </g>
</svg>
