<svg xmlns="http://www.w3.org/2000/svg" xmlns:xlink="http://www.w3.org/1999/xlink" width="406.984" height="399.031" viewBox="0 0 406.984 399.031">
  <defs>
    <linearGradient id="linear-gradient" x1="-0.391" y1="1.261" x2="1.1" y2="0.101" gradientUnits="objectBoundingBox">
      <stop offset="0" stop-color="#fdd69f"/>
      <stop offset="1" stop-color="#ff692a"/>
    </linearGradient>
  </defs>
  <path id="Mask_Copy_2" data-name="Mask Copy 2" d="M128.6,329.1c189.982,104.756,358.05-222.865,83.172-285.383C209.572,43.91-35.165,69.4,128.6,329.1Z" transform="translate(480.94 112.274) rotate(120)" fill="url(#linear-gradient)"/>
</svg>
